"","x"
"1","SPP1"
"2","CGA"
"3","CCL17"
"4","GNLY"
"5","CCL5"
"6","IL17A"
"7","NKG7"
"8","CCL19"
"9","CCL2"
"10","IL1B"
"11","G0S2"
"12","TYROBP"
"13","SPINK1"
"14","FCER1G"
"15","IFI30"
"16","FCN1"
"17","GZMB"
"18","PMCH"
"19","CCL24"
"20","CD14"
"21","FGFBP2"
"22","HDC"
"23","CD74"
"24","IL1RN"
"25","CD177"
"26","CCL20"
"27","GZMA"
"28","IGLL5"
"29","ADCYAP1"
"30","IL32"
"31","IDO1"
"32","CD8A"
"33","IGFL2"
"34","CCL22"
"35","PLAUR"
"36","GZMH"
"37","KIT"
"38","CD207"
"39","CLU"
"40","UBD"
"41","IL21"
"42","ADAMTS1"
"43","FCGR3A"
"44","LCN2"
"45","GPNMB"
"46","IFI27"
"47","KLRF1"
"48","IL22RA2"
"49","UBE2C"
"50","CD69"
"51","KLRC1"
"52","KRTAP12-3"
"53","NUPR1"
"54","IL2"
"55","HBB"
"56","CH25H"
"57","KIR3DL3"
"58","FCER2"
"59","KIR2DL4"
"60","FABP1"
"61","ATP6V1G2"
"62","FCER1A"
"63","LAIR2"
"64","CD160"
"65","GZMK"
"66","KIR3DL2"
"67","CLC"
"68","IL1R2"
"69","CD1E"
"70","SPTSSB"
"71","CDKL4"
"72","MYO1A"
"73","IFNG"
"74","LGALS4"
"75","IL1RL1"
"76","CCR8"
"77","GLUL"
"78","HUS1B"
"79","CD1C"
"80","CD68"
"81","KLRB1"
"82","KRT86"
"83","KLRC2"
"84","GML"
"85","CFP"
"86","IL10"
"87","KLRD1"
"88","IL6"
"89","KRT19"
"90","TUBA3D"
"91","CD22"
"92","NFKBIA"
"93","CD3D"
"94","CD79A"
"95","FEZ1"
"96","GFPT2"
"97","OSM"
"98","PI3"
"99","GRN"
"100","NEIL1"
"101","SPINK2"
"102","MZB1"
"103","KLRK1"
"104","ARSJ"
"105","NCCRP1"
"106","LOXL1"
"107","CLEC10A"
"108","STMN1"
"109","NCR3"
"110","NEFM"
"111","PAGE5"
"112","KRT18"
"113","UCN"
"114","CCR3"
"115","LGALS1"
"116","GPR183"
"117","CD83"
"118","FBP1"
"119","CD19"
"120","CKB"
"121","ID1"
"122","CD8B"
"123","IFITM1"
"124","CD52"
"125","CD9"
"126","FANK1"
"127","GNG8"
"128","IER3"
"129","CCR7"
"130","PCK1"
"131","HILPDA"
"132","ARMC12"
"133","IL2RA"
"134","CLEC4C"
"135","GSN"
"136","CD79B"
"137","FCGR2A"
"138","FCRL1"
"139","PHGR1"
"140","LRRC70"
"141","GNRH1"
"142","FCRLA"
"143","FABP3"
"144","CHL1"
"145","ARHGAP24"
"146","CHN1"
"147","CD163"
"148","CHAC1"
"149","LST1"
"150","CHI3L2"
"151","OVGP1"
"152","ULBP2"
"153","GPM6A"
"154","OLR1"
"155","LRRC49"
"156","KLHL4"
"157","MYOM2"
"158","LRRN3"
"159","IFIT1"
"160","MYH3"
"161","FCRL6"
"162","LTC4S"
"163","LGALS2"
"164","HLF"
"165","IFI44L"
"166","KLRG1"
"167","SOD2"
"168","FAM177B"
"169","BCL2A1"
"170","KRT72"
"171","KCNK7"
"172","CLIC3"
"173","CISH"
"174","IGFBP3"
"175","GNG4"
"176","LMNA"
"177","CD40LG"
"178","HTR1F"
"179","NMB"
"180","LEF1"
"181","BANK1"
"182","OR52N4"
"183","PLXDC1"
"184","SPIB"
"185","PI16"
"186","GLA"
"187","TUBA1B"
"188","PLIN2"
"189","IRF8"
"190","LEAP2"
"191","GPR52"
"192","OSR2"
"193","IL7R"
"194","PATL2"
"195","CIART"
"196","LRRC32"
"197","ADAM20"
"198","PDGFRB"
"199","IGSF6"
"200","ESAM"
"201","CFD"
"202","CD36"
"203","PIGR"
"204","FAIM2"
"205","LILRA4"
"206","FAM83B"
"207","AASS"
"208","KCNAB3"
"209","CHRNA6"
"210","BRICD5"
"211","TXK"
"212","IL23A"
"213","MUC12"
"214","POU6F1"
"215","ATP13A4"
"216","PLAC8"
"217","LTB"
"218","SRGN"
"219","CLEC5A"
"220","IRGM"
"221","KIAA0895"
"222","HERPUD1"
"223","CDC20"
"224","HAMP"
"225","CDK20"
"226","PARD3"
"227","ISG15"
"228","ICOS"
"229","IL23R"
"230","FBXO15"
"231","NAP1L3"
"232","CCR9"
"233","CD300E"
"234","IL4I1"
"235","ST8SIA6"
"236","CD200"
"237","NAP1L2"
"238","INSL3"
"239","PLK2"
"240","ITM2A"
"241","CDK1"
"242","KRT7"
"243","CD63"
"244","BEX5"
"245","GPR171"
"246","ETNK2"
"247","GPR15"
"248","BOK"
"249","NME9"
"250","MYO3B"
"251","F3"
"252","FCRL2"
"253","PLD4"
"254","FGR"
"255","FAM184A"
"256","CES4A"
"257","ADAM23"
"258","ADAM28"
"259","GPR25"
"260","ADAMTS10"
"261","FGF9"
"262","ID2"
"263","IL1A"
"264","IL5RA"
"265","LTF"
"266","LGR6"
"267","NFKBID"
"268","KIR2DL1"
"269","KRT81"
"270","GSTP1"
"271","PLK1"
"272","GPRC5A"
"273","CEACAM1"
"274","PACRG"
"275","PIK3R1"
"276","ACSL6"
"277","LGMN"
"278","IFITM2"
"279","BATF"
"280","HLA-DMB"
"281","PCOLCE"
"282","CLDN5"
"283","ARL4D"
"284","FAM24B"
"285","ASIP"
"286","LAYN"
"287","CD1B"
"288","LDHA"
"289","HUNK"
"290","SSBP2"
"291","HEMGN"
"292","PAX5"
"293","SSR4"
"294","LGR4"
"295","TSC22D1"
"296","UCP2"
"297","FBXO24"
"298","LGALS3"
"299","UCP3"
"300","CLHC1"
"301","LAD1"
"302","GPX2"
"303","POPDC2"
"304","ATF3"
"305","HCST"
"306","ATP6V1E2"
"307","FAM89A"
"308","CD72"
"309","PLAT"
"310","GLIS3"
"311","HKDC1"
"312","FCGRT"
"313","IFI44"
"314","CCNB2"
"315","CHKB"
"316","PDCD1"
"317","IFI6"
"318","SPRY1"
"319","IL18RAP"
"320","FAM166B"
"321","FBLN7"
"322","GZMM"
"323","ABHD1"
"324","ACKR4"
"325","IFIT2"
"326","TUBA1A"
"327","BNC2"
"328","FASLG"
"329","PFN2"
"330","EVA1C"
"331","FAM153A"
"332","PCDH9"
"333","LRRC46"
"334","NINJ1"
"335","HLA-DRB1"
"336","CDKL2"
"337","SPEF2"
"338","ERMN"
"339","KLF6"
"340","SPON2"
"341","CLEC4E"
"342","HESX1"
"343","P2RX5"
"344","BBS12"
"345","PLEKHG3"
"346","NEBL"
"347","PIWIL4"
"348","LIPJ"
"349","PPP1R17"
"350","GPR18"
"351","FAM124B"
"352","HCG22"
"353","CFH"
"354","GLIPR1L2"
"355","PGBD4"
"356","TTLL11"
"357","NEURL4"
"358","ACER2"
"359","LTA"
"360","HCN3"
"361","PCBP3"
"362","NCAM1"
"363","PPP1R14A"
"364","ABCB4"
"365","LSMEM1"
"366","TSGA10"
"367","PLEKHG4"
"368","CLEC17A"
"369","IL11RA"
"370","HLA-DOB"
"371","BBS4"
"372","CD2"
"373","HAVCR1"
"374","PIGL"
"375","JUNB"
"376","STAB1"
"377","NTNG1"
"378","CDA"
"379","FCRL3"
"380","ITGAV"
"381","BCL11A"
"382","CENPM"
"383","CNFN"
"384","FCRL5"
"385","LETM2"
"386","PIK3C3"
"387","FCGR2B"
"388","IFIT3"
"389","ICA1"
"390","STEAP1B"
"391","CD96"
"392","HLA-DMA"
"393","IL12A"
"394","NUCB2"
"395","BAMBI"
"396","ITGB1BP2"
"397","PEX12"
"398","CMTM8"
"399","FFAR3"
"400","HSPH1"
"401","PEG10"
"402","MYOT"
"403","JAG2"
"404","ADAMDEC1"
"405","ATG9B"
"406","TXNRD3"
"407","CD70"
"408","NUSAP1"
"409","HEY2"
"410","GRAP2"
"411","FBF1"
"412","PPP1R3E"
"413","CDKL1"
"414","CNKSR2"
"415","NTRK2"
"416","HAVCR2"
"417","ARHGAP33"
"418","HCK"
"419","PLAU"
"420","PLA2G6"
"421","ARMCX4"
"422","LCK"
"423","STAP1"
"424","FAM149A"
"425","ITIH4"
"426","MYO15B"
"427","TSPAN32"
"428","POLI"
"429","CCNJL"
"430","ADCY4"
"431","LILRB4"
"432","LRRC2"
"433","PLK3"
"434","UGT2B17"
"435","GRAMD1C"
"436","CEP97"
"437","ACTA2"
"438","LGR5"
"439","IFT57"
"440","LINGO3"
"441","HECW2"
"442","IQCC"
"443","FAM169A"
"444","LMO7"
"445","KCNIP2"
"446","KHDC1"
"447","ASAH2B"
"448","IFNL1"
"449","LRRC29"
"450","CD82"
"451","TUBB2A"
"452","OASL"
"453","LIPC"
"454","NAPSA"
"455","UGT8"
"456","ARSK"
"457","CEP112"
"458","GIMAP4"
"459","ADHFE1"
"460","LAT"
"461","BTBD8"
"462","GRB10"
"463","NEK11"
"464","ACP6"
"465","PIFO"
"466","IL3RA"
"467","HMGB2"
"468","ULK4"
"469","CCSER1"
"470","MYBPC2"
"471","FGFR1"
"472","PLCB1"
"473","TYMS"
"474","P2RY14"
"475","TXNIP"
"476","ITGAE"
"477","AVIL"
"478","KLF8"
"479","KLHL14"
"480","LRRC34"
"481","LILRA2"
"482","IQCH"
"483","GPR55"
"484","GSTM2"
"485","LPAR2"
"486","ISYNA1"
"487","TSPAN2"
"488","MX1"
"489","IFT172"
"490","HLA-DOA"
"491","NFE2"
"492","CD200R1"
"493","TSPO"
"494","ARL4A"
"495","CEP70"
"496","ATF7IP2"
"497","PCNA"
"498","LRRC43"
"499","PLEKHA5"
"500","ISG20"
"501","CD226"
"502","GPR21"
"503","MYCBPAP"
"504","CLECL1"
"505","PKIG"
"506","BLNK"
"507","ITPRIPL1"
"508","KLHDC1"
"509","SOX5"
"510","LPP"
"511","ASTN2"
"512","EZH1"
"513","BCO2"
"514","GIMAP2"
"515","KCNMB3"
"516","LILRA5"
"517","PLEKHF1"
"518","CDAN1"
"519","KBTBD8"
"520","IFT81"
"521","NCR1"
"522","ABCA5"
"523","TTC12"
"524","SPAG8"
"525","PDLIM4"
"526","FAM229A"
"527","FAM71A"
"528","FBXO2"
"529","ISL2"
"530","PABPC1L"
"531","GPR84"
"532","PHF7"
"533","FBXW4"
"534","KCTD14"
"535","PM20D1"
"536","NDUFAF7"
"537","TSEN54"
"538","CDK8"
"539","OSBPL5"
"540","ABCA10"
"541","CLN8"
"542","MTMR8"
"543","BCAS3"
"544","GPR34"
"545","GPR146"
"546","ACCS"
"547","KANSL2"
"548","HSPE1"
"549","FBLN2"
"550","GPAT2"
"551","MYL12A"
"552","CCL28"
"553","ASIC3"
"554","ATRIP"
"555","PADI4"
"556","PIGN"
"557","ERRFI1"
"558","PIEZO1"
"559","TUBE1"
"560","PIGB"
"561","GPBAR1"
"562","PPFIBP1"
"563","LSR"
"564","POT1"
"565","IPP"
"566","LAIR1"
"567","GRHL1"
"568","TSPAN13"
"569","LDHB"
"570","CLDND1"
"571","PARP6"
"572","HSPA12A"
"573","LMCD1"
"574","INTS4"
"575","TUBB"
"576","CD7"
"577","CD3E"
"578","CEACAM5"
"579","CLDN4"
"580","TSPAN1"
"581","HLA-DQB1"
"582","CDHR5"
"583","KLRC3"
"584","KREMEN2"
"585","LAMP3"
"586","PLGLB2"
"587","KRT8"
"588","CNKSR3"
"589","BMP4"
"590","MYRIP"
"591","NUTM2A"
"592","MUC16"
"593","TTBK1"
"594","FAM229B"
"595","HBEGF"
"596","IL17RB"
"597","FAM71F2"
"598","NOG"
"599","OLFM4"
"600","LIMCH1"
"601","MYO15A"
"602","ADAMTS13"
"603","ITGA10"
"604","PHLDA1"
"605","CDNF"
"606","GPR137C"
"607","FAM184B"
"608","LDB2"
"609","CDK15"
"610","IER2"
"611","POLR3E"
"612","LPL"
"613","PKD1L1"
"614","FGL2"
"615","HCN2"
"616","A2M"
"617","OPCML"
"618","JSRP1"
"619","HEATR9"
"620","NTNG2"
"621","GPC4"
"622","BACE2"
"623","LILRB2"
"624","GPR176"
"625","CCNE1"
"626","KLRC4"
"627","PEX11A"
"628","GPR153"
"629","SOX7"
"630","BTG2"
"631","ARL17B"
"632","ADAMTS7"
"633","UBXN10"
"634","CITED4"
"635","GREM2"
"636","NETO1"
"637","AZGP1"
"638","CENPF"
"639","CD37"
"640","CD3G"
"641","ASPM"
"642","FCRL4"
"643","ST6GALNAC1"
"644","B3GAT1"
"645","TTLL7"
"646","HNF4G"
"647","TYMP"
"648","PLVAP"
"649","BLOC1S5"
"650","KLHL13"
"651","STAG3"
"652","PAK3"
"653","LRP3"
"654","JUN"
"655","KCNJ14"
"656","BCL2L15"
"657","IFITM3"
"658","IGFBP6"
"659","ITM2C"
"660","CHSY3"
"661","KRT20"
"662","SOCS2"
"663","KRT23"
"664","SOX4"
"665","PLA2G7"
"666","IRF4"
"667","CD163L1"
"668","GSTA4"
"669","SPOCK2"
"670","F5"
"671","SPTLC3"
"672","AURKC"
"673","IL1R1"
"674","KLHDC9"
"675","ABCA6"
"676","GNAI1"
"677","CITED2"
"678","FCGR3B"
"679","GPX1"
"680","IL2RB"
"681","LIF"
"682","CD247"
"683","HSPB1"
"684","GRB7"
"685","PDE7B"
"686","KLF4"
"687","ETV1"
"688","HYKK"
"689","IGSF3"
"690","HLA-DRB5"
"691","PDE6G"
"692","PIM2"
"693","TTN"
"694","ACTN2"
"695","GSTM3"
"696","L1CAM"
"697","ITGB4"
"698","ST8SIA1"
"699","GOLGA7B"
"700","OTOA"
"701","SPI1"
"702","TSC22D3"
"703","NAMPT"
"704","LIPT2"
"705","GRID2IP"
"706","LAG3"
"707","NFKBIZ"
"708","CEACAM6"
"709","ERN1"
"710","KRTCAP3"
"711","MTRNR2L6"
"712","PDE9A"
"713","HAP1"
"714","LRRC26"
"715","CFAP69"
"716","ATP1B2"
"717","KIF7"
"718","SORBS1"
"719","GUCA1B"
"720","PELO"
"721","IGSF11"
"722","PHYHD1"
"723","KCNJ15"
"724","PLS1"
"725","PLEKHB1"
"726","CCR4"
"727","PLEKHG5"
"728","ARHGAP42"
"729","NAV2"
"730","FAM156B"
"731","OVOL1"
"732","ITK"
"733","NEB"
"734","SPTBN5"
"735","ITGB2"
"736","IKZF2"
"737","GPR174"
"738","ATP6AP1L"
"739","NUDT7"
"740","NIPAL4"
"741","CCNB1"
"742","NDN"
"743","BACE1"
"744","IGIP"
"745","BACH2"
"746","FAAH2"
"747","POU3F1"
"748","NELL2"
"749","FABP5"
"750","KATNAL2"
"751","NTRK1"
"752","POF1B"
"753","CD28"
"754","KLB"
"755","CHRNA7"
"756","KREMEN1"
"757","GPR75"
"758","NEK10"
"759","KLRF2"
"760","KLHL3"
"761","BIRC3"
"762","KCNRG"
"763","NINL"
"764","ARL10"
"765","OXNAD1"
"766","ICAM1"
"767","NAALADL1"
"768","IL6ST"
"769","CELA1"
"770","ATF5"
"771","ASTL"
"772","PDE3B"
"773","CCT6B"
"774","PLCH1"
"775","CLDN23"
"776","CDKN1C"
"777","HAS3"
"778","PILRA"
"779","PMP22"
"780","CDC20B"
"781","ITGA6"
"782","KALRN"
"783","SPATA1"
"784","HEY1"
"785","TTC16"
"786","BCS1L"
"787","NUTM2B"
"788","CNN3"
"789","PHKG1"
"790","GPC5"
"791","L3HYPDH"
"792","TSHZ2"
"793","GPRASP1"
"794","ITGB8"
"795","CDKN1A"
"796","BHLHE40"
"797","CCDC184"
"798","PINLYP"
"799","HTR3A"
"800","PIK3R3"
"801","MYC"
"802","SQSTM1"
"803","ID3"
"804","PDE4D"
"805","B4GALNT1"
"806","MUC1"
"807","IKZF4"
"808","CLEC7A"
"809","PCDH12"
"810","GREB1"
"811","EVC"
"812","CD5"
"813","MYO16"
"814","NDUFAF5"
"815","TSPYL2"
"816","LIPT1"
"817","STK33"
"818","FFAR4"
"819","GPA33"
"820","SRGAP3"
"821","PDZD4"
"822","NEK3"
"823","ATP1A4"
"824","LCN10"
"825","IPCEF1"
"826","NXPE4"
"827","PASK"
"828","IQCK"
"829","CCND2"
"830","CCZ1B"
"831","JMJD7"
"832","SORL1"
"833","BCL11B"
"834","PLTP"
"835","CFL2"
"836","CMC1"
"837","ITGA1"
"838","SPA17"
"839","CD6"
"840","PHEX"
"841","GIMAP7"
"842","CCNA2"
"843","PHLDB2"
"844","LRRC4"
"845","ABCC6"
"846","PLXNB1"
"847","NBPF1"
"848","NCR2"
"849","SOCS3"
"850","ARRDC5"
"851","CFTR"
"852","CKLF"
"853","BEX2"
"854","NKD1"
"855","BIK"
"856","GK"
"857","ADARB1"
"858","PHOSPHO1"
"859","MUTYH"
"860","UBE2J1"
"861","CDC14A"
"862","IFFO2"
"863","SPARC"
"864","GTSF1"
"865","KCNA6"
"866","ILDR2"
"867","TSPAN12"
"868","TSPAN18"
"869","CIITA"
"870","F2RL1"
"871","FAM156A"
"872","FAM227A"
"873","MUC20"
"874","B3GALT6"
"875","ACVR1C"
"876","SPATA24"
"877","KDM6B"
"878","BCL2L10"
"879","NAIF1"
"880","TTC36"
"881","CD27"
"882","NBEA"
"883","TRPV1"
"884","LRFN3"
"885","PDIA4"
"886","SNRPD2"
"887","CMTM2"
"888","PKP3"
"889","PLEKHG2"
"890","IL22RA1"
"891","PLXNA4"
"892","FAXDC2"
"893","ULBP3"
"894","BEND5"
"895","NUP62CL"
"896","PLEKHA7"
"897","FAM174B"
"898","BCL9L"
"899","LRRN1"
"900","TSEN2"
"901","ITGAX"
"902","MTCP1"
"903","GPSM1"
"904","GFER"
"905","NCF2"
"906","CLEC4G"
"907","IL7"
"908","PARP15"
"909","KLF2"
"910","GPRIN3"
"911","LURAP1L"
"912","CDKN3"
"913","KCNH4"
"914","LTK"
"915","ABTB2"
"916","CLCF1"
"917","OSBPL6"
"918","STARD10"
"919","LRRC75A"
"920","SPDYE3"
"921","KIF14"
"922","PARP8"
"923","LRRC24"
"924","STAT4"
"925","PDGFB"
"926","FAM83D"
"927","TVP23A"
"928","KIF19"
"929","CDH26"
"930","PPAN"
"931","ABCA1"
"932","CLDN2"
"933","STK36"
"934","BIRC5"
"935","ADAM19"
"936","IL21R"
"937","STAP2"
"938","MYO7A"
"939","KLHL25"
"940","LIN7B"
"941","F2RL2"
"942","LRRC27"
"943","IL4R"
"944","UCHL1"
"945","MTSS1"
"946","ADAMTSL5"
"947","ATP1A3"
"948","CELSR2"
"949","ARHGEF28"
"950","PFKFB3"
"951","PHLDA2"
"952","BLK"
"953","FBXL13"
"954","BCDIN3D"
"955","CD4"
"956","KIF21B"
"957","FERMT2"
"958","GPR63"
"959","ITPRIP"
"960","PPP1R14B"
"961","ARHGEF16"
"962","CCNH"
"963","HAL"
"964","PGP"
"965","LGALS9C"
"966","PDZD7"
"967","ACOT1"
"968","ATP8B4"
"969","PPP2R2B"
"970","PLEKHG1"
"971","HIC2"
"972","FAM167B"
"973","PGAP1"
"974","TSPAN6"
"975","ATP8B2"
"976","PDCD2L"
"977","AAMDC"
"978","GPR157"
"979","PBXIP1"
"980","PPOX"
"981","NANOS3"
"982","F2R"
"983","ESRP2"
"984","OBSCN"
"985","TTC39B"
"986","FAM227B"
"987","NLRP3"
"988","IL12RB2"
"989","PBX4"
"990","NINJ2"
"991","LDLRAD4"
"992","LPAR6"
"993","STK25"
"994","AARSD1"
"995","KCP"
"996","ATP2B4"
"997","HYAL3"
"998","IL18R1"
"999","CCR6"
"1000","CGRRF1"
"1001","BOLA1"
"1002","CD248"
"1003","BCL7A"
"1004","GUCY2D"
"1005","KLLN"
"1006","KIAA1549"
"1007","HES4"
"1008","ABCB1"
"1009","FAM13A"
"1010","SOGA3"
"1011","TSPYL4"
"1012","JAM2"
"1013","PPP1R15B"
"1014","BBS2"
"1015","CD84"
"1016","POP4"
"1017","NYNRIN"
"1018","MYBL1"
"1019","SPATA7"
"1020","PKHD1L1"
"1021","ARL6"
"1022","POLR2J2"
"1023","GLB1L2"
"1024","FAM53B"
"1025","ACE"
"1026","PER1"
"1027","POMT2"
"1028","JAKMIP1"
"1029","BCL2L14"
"1030","ESPN"
"1031","SPN"
"1032","PMAIP1"
"1033","ARHGEF18"
"1034","PPP1R3F"
"1035","CDPF1"
"1036","NCS1"
"1037","SOCS1"
"1038","FAM71E1"
"1039","CEP57L1"
"1040","PGM2L1"
"1041","PPP1R36"
"1042","BMP8B"
"1043","MYEOV"
"1044","NIPA1"
"1045","LCP2"
"1046","ATP8A1"
"1047","CLCN4"
"1048","HARBI1"
"1049","ITGB1"
"1050","PELI1"
"1051","PLA2G12A"
"1052","SPTBN1"
"1053","KCNC3"
"1054","CLEC2D"
"1055","CDYL2"
"1056","MVB12B"
"1057","EVL"
"1058","PDK1"
"1059","IL26"
"1060","PHAX"
"1061","ACVR2B"
"1062","BEST4"
"1063","AURKB"
"1064","ITPKB"
"1065","CES1"
"1066","ITPR1"
"1067","BTBD11"
"1068","PAM"
"1069","CDCA8"
"1070","NLRC5"
"1071","B3GALT2"
"1072","LIN37"
"1073","KIFC2"
"1074","TUBA4A"
"1075","AAK1"
"1076","BTBD19"
"1077","LNX1"
"1078","PHKA1"
"1079","ADAT2"
"1080","BCL2L11"
"1081","ERICH6"
"1082","GIGYF1"
"1083","PODXL"
"1084","TTC8"
"1085","NHS"
"1086","MYO1B"
"1087","NT5C3B"
"1088","BOD1"
"1089","SSR3"
"1090","CMTM4"
"1091","GPR19"
"1092","CELF6"
"1093","ATP1B1"
"1094","MXD1"
"1095","PLCD1"
"1096","KHDRBS2"
"1097","PBX1"
"1098","CCNI2"
"1099","CDK5R1"
"1100","BTBD9"
"1101","PLEC"
"1102","HES6"
"1103","PAG1"
"1104","LEPROTL1"
"1105","CLIC5"
"1106","ATXN7"
"1107","NEFH"
"1108","STOML1"
"1109","IGF1R"
"1110","ACACB"
"1111","TTC32"
"1112","BAIAP3"
"1113","SNX8"
"1114","CHMP1B"
"1115","CLSTN3"
"1116","FAM171A1"
"1117","BTBD6"
"1118","IL17RE"
"1119","PLEK"
"1120","MTERF2"
"1121","PPIB"
"1122","FCHSD2"
"1123","KATNAL1"
"1124","GIN1"
"1125","P2RY8"
"1126","HAPLN3"
"1127","PLCH2"
"1128","ARID5B"
"1129","HDX"
"1130","HECA"
"1131","ADCY6"
"1132","FAIM"
"1133","ERN2"
"1134","POU2AF1"
"1135","STARD9"
"1136","IVNS1ABP"
"1137","B4GALNT3"
"1138","NUDT8"
"1139","GRAPL"
"1140","MYADM"
"1141","ABCG2"
"1142","HDAC11"
"1143","PIM1"
"1144","FBXL16"
"1145","HEXIM2"
"1146","CD38"
"1147","CHMP4C"
"1148","PITPNC1"
"1149","CDK5RAP1"
"1150","PLCXD2"
"1151","PERP"
"1152","KANSL1"
"1153","KCTD6"
"1154","IGF1"
"1155","SPON1"
"1156","FAS"
"1157","LIME1"
"1158","CMTM1"
"1159","CD1A"
"1160","FBLN5"
"1161","GGT1"
"1162","PARD6A"
"1163","PPP1R16B"
"1164","FBXO32"
"1165","CNNM3"
"1166","CDK6"
"1167","KLHL15"
"1168","ATG2A"
"1169","GPRC5D"
"1170","PDE4B"
"1171","PFDN5"
"1172","HVCN1"
"1173","KBTBD11"
"1174","POP5"
"1175","ADCY9"
"1176","ABCA3"
"1177","POLR1C"
"1178","ABCA2"
"1179","HDAC4"
"1180","PLCL1"
"1181","FAM120C"
"1182","PFN1"
"1183","CDHR3"
"1184","IFT22"
"1185","PKD1"
"1186","GOLGA8A"
"1187","ARRDC2"
"1188","ARL17A"
"1189","HDHD3"
"1190","PPP2R1B"
"1191","NIPAL1"
"1192","PIK3IP1"
"1193","KDM6A"
"1194","ATL1"
"1195","LRIG1"
"1196","MYLPF"
"1197","LDLR"
"1198","FAM220A"
"1199","ASXL1"
"1200","KLF9"
"1201","ITGAL"
"1202","PLBD1"
"1203","CCNT1"
"1204","GGT7"
"1205","UBASH3B"
"1206","SPATA13"
"1207","CLNK"
"1208","ETV3"
"1209","CHD7"
"1210","NLRC3"
"1211","LRRC63"
"1212","ABCC1"
"1213","GTF2A2"
"1214","STAM"
"1215","ATXN7L1"
"1216","CD274"
"1217","F8"
"1218","GNPTAB"
"1219","PGK1"
"1220","ETS1"
"1221","PDE8A"
"1222","TTLL1"
"1223","TVP23C"
"1224","PLD1"
"1225","SNX25"
"1226","NDRG1"
"1227","IL6R"
"1228","UBASH3A"
"1229","ODF2L"
"1230","TSTD1"
"1231","HMSD"
"1232","IDUA"
"1233","ADARB2"
"1234","LILRB1"
"1235","IRF1"
"1236","GOLGA8B"
"1237","GPRC5C"
"1238","ADAL"
"1239","GPC2"
"1240","ABCB6"
"1241","LRP8"
"1242","STAT1"
"1243","L2HGDH"
"1244","BRWD1"
"1245","GLS"
"1246","KMT2A"
"1247","LMBR1L"
"1248","ACSF2"
"1249","IFRD1"
"1250","GLUD2"
"1251","PCYT2"
"1252","NUFIP2"
"1253","HIVEP2"
"1254","LRBA"
"1255","SNX29"
"1256","ACP5"
"1257","ARMCX2"
"1258","CHCHD4"
"1259","FAM53A"
"1260","FBXL20"
"1261","PPP1R13L"
"1262","IDNK"
"1263","HLA-DQB2"
"1264","ARHGEF10"
"1265","TUBD1"
"1266","PPIL3"
"1267","HHIPL1"
"1268","UBB"
"1269","JAK3"
"1270","LRRC1"
"1271","NUP205"
"1272","IMP4"
"1273","LRRC37A2"
"1274","TTC26"
"1275","BCL6"
"1276","SPIN2B"
"1277","B3GNT8"
"1278","KAT6A"
"1279","GMPR2"
"1280","CEP95"
"1281","ARL4C"
"1282","NAA25"
"1283","GIMAP6"
"1284","CCNB1IP1"
"1285","LRRC37B"
"1286","KDM2B"
"1287","ARHGAP35"
"1288","IFRD2"
"1289","CLEC3B"
"1290","JUND"
"1291","FAM216A"
"1292","GNAO1"
"1293","FCGR1A"
"1294","KLF12"
"1295","ACY3"
"1296","PITPNM2"
"1297","PELI3"
"1298","PLCG1"
"1299","POLE4"
"1300","ADAMTS6"
"1301","SSPN"
"1302","BBS9"
"1303","STMN3"
"1304","LPIN2"
"1305","CHIC1"
"1306","NDUFAF4"
"1307","PDE7A"
"1308","IQSEC3"
"1309","IFNGR1"
"1310","ATAD3C"
"1311","ST6GAL1"
"1312","AUTS2"
"1313","LSS"
"1314","PDHA1"
"1315","PLXDC2"
"1316","SNTB2"
"1317","KDM8"
"1318","LOXL2"
"1319","KRBA1"
"1320","LDB1"
"1321","PHOSPHO2"
"1322","PIGV"
"1323","STPG2"
"1324","KRBA2"
"1325","CHCHD6"
"1326","KCNC4"
"1327","KCNH3"
"1328","HIPK1"
"1329","ATP2A1"
"1330","IBA57"
"1331","PDP2"
"1332","CLASP1"
"1333","GRK4"
"1334","LRIG3"
"1335","UACA"
"1336","KCTD21"
"1337","ASB1"
"1338","HLCS"
"1339","KIAA0825"
"1340","NLRP1"
"1341","GPR155"
"1342","TTC7B"
"1343","AZIN2"
"1344","PIK3CA"
"1345","BCAS1"
"1346","PCSK1N"
"1347","BHLHB9"
"1348","GTF2H4"
"1349","CDC14B"
"1350","PIK3C2B"
"1351","PPP1R12B"
"1352","HTRA1"
"1353","PARP14"
"1354","KCNK5"
"1355","PIGH"
"1356","ISM1"
"1357","MYEF2"
"1358","FGD2"
"1359","KCTD3"
"1360","KCTD2"
"1361","MTUS1"
"1362","NEDD4"
"1363","CCNT2"
"1364","ATG2B"
"1365","PAK6"
"1366","ADAM12"
"1367","FAM110B"
"1368","OXLD1"
"1369","OTULIN"
"1370","SPRY2"
"1371","CERK"
"1372","BSPRY"
"1373","GIMAP5"
"1374","PEMT"
"1375","GPHN"
"1376","PDCD1LG2"
"1377","PLS3"
"1378","TXNDC17"
"1379","MTHFR"
"1380","OCEL1"
"1381","CD80"
"1382","TTC21B"
"1383","SPATA21"
"1384","FASTKD3"
"1385","KIAA0753"
"1386","PHF2"
"1387","NFATC2"
"1388","ABLIM1"
"1389","CD55"
"1390","PON2"
"1391","B3GNT3"
"1392","MTX3"
"1393","ACHE"
"1394","ATP9B"
"1395","MYRF"
"1396","NLE1"
"1397","CFAP44"
"1398","JAKMIP2"
"1399","TSNARE1"
"1400","IRS2"
"1401","CEP85L"
"1402","FAM200B"
"1403","ICAM2"
"1404","STAT5B"
"1405","STRADB"
"1406","TSPAN10"
"1407","NDFIP2"
"1408","NUAK2"
"1409","PIP5KL1"
"1410","IQCD"
"1411","GNAL"
"1412","CDC42BPA"
"1413","KLK1"
"1414","B4GALT1"
"1415","CEP41"
"1416","CLP1"
"1417","LRRC8C"
"1418","BAG3"
"1419","ARNTL"
"1420","SSX2IP"
"1421","OTUD5"
"1422","STK39"
"1423","GNGT2"
"1424","MTCL1"
"1425","NABP1"
"1426","FAM50B"
"1427","POU2F2"
"1428","PIK3CD"
"1429","EVC2"
"1430","MTO1"
"1431","ITGA4"
"1432","CLASP2"
"1433","KLHL32"
"1434","HM13"
"1435","GTPBP6"
"1436","GLT8D1"
"1437","NOD1"
"1438","PLEKHG7"
"1439","PKM"
"1440","JARID2"
"1441","SNX9"
"1442","SRMS"
"1443","FBXW9"
"1444","LSM14B"
"1445","BDH2"
"1446","UBXN8"
"1447","ACADVL"
"1448","GIMAP1"
"1449","ABCD2"
"1450","PPP1R32"
"1451","PIKFYVE"
"1452","F13A1"
"1453","HERC5"
"1454","LRRC37A"
"1455","SPATC1L"
"1456","ABL1"
"1457","TUBB4A"
"1458","ARID1B"
"1459","PCSK7"
"1460","TSG101"
"1461","NCAPD3"
"1462","POMGNT2"
"1463","NLRP6"
"1464","EXOC6B"
"1465","FAAH"
"1466","ITGA3"
"1467","SP4"
"1468","CDK13"
"1469","CEBPE"
"1470","BACH1"
"1471","ACTR3C"
"1472","HMBOX1"
"1473","TTC39C"
"1474","SRGAP2C"
"1475","EXTL2"
"1476","HELB"
"1477","ADCK1"
"1478","ATAD2B"
"1479","FFAR2"
"1480","SPTAN1"
"1481","PMEPA1"
"1482","CHD3"
"1483","ERMARD"
"1484","PKMYT1"
"1485","KLHDC8B"
"1486","TXNDC16"
"1487","GK5"
"1488","STRIP2"
"1489","SNX16"
"1490","ISY1"
"1491","UBA7"
"1492","CLEC2B"
"1493","LRRC23"
"1494","NGFR"
"1495","BCL2"
"1496","NUP85"
"1497","IGF2R"
"1498","KCNA3"
"1499","CNNM4"
"1500","KIAA1109"
"1501","NME6"
"1502","LMTK2"
"1503","STEAP4"
"1504","CEP192"
"1505","CNOT10"
"1506","TTC13"
"1507","NFAT5"
"1508","BRD1"
"1509","HYLS1"
"1510","GIPR"
"1511","IMMP1L"
"1512","NKX3-1"
"1513","EXPH5"
"1514","ACVR2A"
"1515","UBN2"
"1516","ARL5B"
"1517","NUDT13"
"1518","MYH11"
"1519","PLA2R1"
"1520","BMP2K"
"1521","MYL5"
"1522","ITGA7"
"1523","PAWR"
"1524","CETN3"
"1525","LRG1"
"1526","NKRF"
"1527","FBXO33"
"1528","GJB1"
"1529","KMT2D"
"1530","FGGY"
"1531","MUC13"
"1532","IRF2BP2"
"1533","TRRAP"
"1534","CEP128"
"1535","CD99"
"1536","STIM2"
"1537","ARHGAP26"
"1538","KIF13A"
"1539","PGM3"
"1540","PHC1"
"1541","NAT14"
"1542","FAM43A"
"1543","ABHD14A"
"1544","TXLNB"
"1545","IQGAP2"
"1546","KCNK1"
"1547","CDC25C"
"1548","ARL16"
"1549","LMOD3"
"1550","PLEKHM3"
"1551","ATP6V1D"
"1552","GSDMB"
"1553","ESPNL"
"1554","STOM"
"1555","AXIN1"
"1556","FAM83G"
"1557","TTC9C"
"1558","GTPBP1"
"1559","PPP2R2C"
"1560","UBR5"
"1561","CCSER2"
"1562","LFNG"
"1563","GRAMD1B"
"1564","EXOC4"
"1565","NTHL1"
"1566","FADS3"
"1567","ATP6V0A1"
"1568","HUWE1"
"1569","PDLIM1"
"1570","GRAP"
"1571","FBXL14"
"1572","SNTA1"
"1573","ABHD4"
"1574","ARHGEF37"
"1575","CEMIP"
"1576","SPEN"
"1577","ARID2"
"1578","NAT9"
"1579","EXOC8"
"1580","KAT6B"
"1581","ABHD5"
"1582","MTRNR2L8"
"1583","FANCG"
"1584","HGH1"
"1585","ASIC1"
"1586","LTB4R2"
"1587","MXRA7"
"1588","PPP1R3D"
"1589","LLGL2"
"1590","NUP153"
"1591","LRIG2"
"1592","HECTD4"
"1593","BPHL"
"1594","GPR141"
"1595","CEP162"
"1596","MTMR4"
"1597","CDCA3"
"1598","NIN"
"1599","LEMD3"
"1600","BPNT1"
"1601","PPM1J"
"1602","ABLIM2"
"1603","ITGA9"
"1604","LANCL3"
"1605","ADD2"
"1606","HK2"
"1607","GMEB2"
"1608","PIGP"
"1609","CFAP20"
"1610","LEMD2"
"1611","FBRSL1"
"1612","LGALS3BP"
"1613","MTFR1L"
"1614","GTF3C1"
"1615","LRP12"
"1616","EXOG"
"1617","NCOA2"
"1618","NMNAT1"
"1619","ATIC"
"1620","HEATR5B"
"1621","FAM178B"
"1622","KDM2A"
"1623","KCTD7"
"1624","KPTN"
"1625","PIAS2"
"1626","HABP4"
"1627","ITPR3"
"1628","NDRG2"
"1629","KDF1"
"1630","ATP2A3"
"1631","NDUFAF6"
"1632","KDM3A"
"1633","MYO5A"
"1634","N4BP2"
"1635","OSGEP"
"1636","PLXNA1"
"1637","POLR2I"
"1638","FANCM"
"1639","LCP1"
"1640","LRRC8D"
"1641","NDUFS4"
"1642","LUC7L"
"1643","PORCN"
"1644","L3MBTL4"
"1645","CKS2"
"1646","SPPL2B"
"1647","BPGM"
"1648","LCOR"
"1649","FBXO43"
"1650","NEDD9"
"1651","ARL15"
"1652","SPTBN2"
"1653","TSPAN5"
"1654","IMMP2L"
"1655","ESYT2"
"1656","PILRB"
"1657","INSIG1"
"1658","LETMD1"
"1659","HMGN5"
"1660","IKBKB"
"1661","OGT"
"1662","SS18L1"
"1663","LPGAT1"
"1664","KNTC1"
"1665","HEXIM1"
"1666","OSBPL10"
"1667","TUBGCP4"
"1668","ATP8A2"
"1669","FBXL6"
"1670","KIDINS220"
"1671","PHACTR2"
"1672","STK16"
"1673","IER5"
"1674","NAGLU"
"1675","KIF20B"
"1676","IFT80"
"1677","LAT2"
"1678","CHAC2"
"1679","STAC"
"1680","KLHL7"
"1681","NCK2"
"1682","FAM185A"
"1683","INTS10"
"1684","TYW1"
"1685","NFATC2IP"
"1686","LUZP1"
"1687","HERC1"
"1688","ADAMTS17"
"1689","CCNF"
"1690","PFKFB2"
"1691","PGBD2"
"1692","NARS2"
"1693","ACADSB"
"1694","OTUD3"
"1695","PARP2"
"1696","SOS2"
"1697","FAM172A"
"1698","PECR"
"1699","LDLRAP1"
"1700","CLEC16A"
"1701","SPATA5L1"
"1702","KIAA0586"
"1703","ARMCX5"
"1704","NUP160"
"1705","ATP11B"
"1706","ODC1"
"1707","NUP210"
"1708","CENPV"
"1709","SSH1"
"1710","KLHL6"
"1711","PPP2R2D"
"1712","MTF2"
"1713","MTMR3"
"1714","POLR3A"
"1715","NFATC3"
"1716","NAE1"
"1717","PPM1D"
"1718","PKIB"
"1719","NKTR"
"1720","ITM2B"
"1721","CDK17"
"1722","BCL9"
"1723","MYO9A"
"1724","CIC"
"1725","ATG4A"
"1726","CD40"
"1727","NEO1"
"1728","OGFOD2"
"1729","OMA1"
"1730","LRRC28"
"1731","NCOA1"
"1732","NEU1"
"1733","FANCE"
"1734","SRR"
"1735","CEP120"
"1736","ITFG2"
"1737","JRK"
"1738","ADCK5"
"1739","CLCN6"
"1740","ACAD11"
"1741","TTLL4"
"1742","TSPYL1"
"1743","CEACAM3"
"1744","MTR"
"1745","PDXDC1"
"1746","LIAS"
"1747","SOS1"
"1748","NARF"
"1749","NFIA"
"1750","BRD8"
"1751","IGFBP7"
"1752","KANSL3"
"1753","OXT"
"1754","ORMDL2"
"1755","ATXN1"
"1756","NBPF15"
"1757","ATRN"
"1758","ATPAF2"
"1759","ARHGEF3"
"1760","INTS2"
"1761","BIRC6"
"1762","KAT2A"
"1763","FANCD2"
"1764","MTERF3"
"1765","ABCG1"
"1766","FBXO34"
"1767","ILDR1"
"1768","FBXO22"
"1769","TUBGCP6"
"1770","HACE1"
"1771","KCNQ5"
"1772","SPIN3"
"1773","FAM193B"
"1774","PLRG1"
"1775","FAM53C"
"1776","LRP5L"
"1777","ST6GALNAC6"
"1778","NMT2"
"1779","CD109"
"1780","GRAMD4"
"1781","NLRP2"
"1782","CDK5RAP2"
"1783","CLYBL"
"1784","PCP2"
"1785","CEP350"
"1786","NEK1"
"1787","CDK14"
"1788","ASXL2"
"1789","LITAF"
"1790","PPP1R9A"
"1791","HDDC3"
"1792","CENPE"
"1793","FAM117B"
"1794","KCNH8"
"1795","HELLS"
"1796","ITPR2"
"1797","ABCC10"
"1798","CLDND2"
"1799","UFSP1"
"1800","ARHGEF9"
"1801","NDUFS3"
"1802","ERP27"
"1803","IFT52"
"1804","KLHL11"
"1805","ATP11C"
"1806","IL17RA"
"1807","ITGB1BP1"
"1808","NTAN1"
"1809","LRCH1"
"1810","ATF7IP"
"1811","GNA15"
"1812","TTC21A"
"1813","POLG2"
"1814","ACSM3"
"1815","ATP10A"
"1816","CD101"
"1817","CLDN15"
"1818","GRK5"
"1819","NFS1"
"1820","LRRC37A3"
"1821","NUDT6"
"1822","FAM102A"
"1823","NUP88"
"1824","CSNK2A3"
"1825","POP1"
"1826","CDCA7L"
"1827","GPD1L"
"1828","IFT43"
"1829","IPMK"
"1830","PHTF2"
"1831","PIGC"
"1832","NT5DC1"
"1833","UBR1"
"1834","PLAG1"
"1835","HECTD2"
"1836","HYPK"
"1837","HIP1R"
"1838","GGA2"
"1839","LCLAT1"
"1840","KCTD15"
"1841","STK19"
"1842","MYH10"
"1843","HEATR1"
"1844","BRPF3"
"1845","HMG20A"
"1846","MYLIP"
"1847","OSBPL3"
"1848","PDPR"
"1849","SPATA5"
"1850","CLEC12A"
"1851","LAX1"
"1852","ADAT1"
"1853","KLHL21"
"1854","HEG1"
"1855","HIVEP1"
"1856","UBR2"
"1857","HAUS7"
"1858","PDGFA"
"1859","ATM"
"1860","OAS1"
"1861","OLFM2"
"1862","PAQR8"
"1863","HINFP"
"1864","LNPEP"
"1865","ST3GAL1"
"1866","AAAS"
"1867","LNX2"
"1868","NGDN"
"1869","LTB4R"
"1870","HELQ"
"1871","MTERF1"
"1872","LAMB3"
"1873","FAM214A"
"1874","HHAT"
"1875","CELSR1"
"1876","NFIX"
"1877","PLEKHA2"
"1878","PHF10"
"1879","FBXO41"
"1880","KIAA0100"
"1881","PDZD11"
"1882","LARP4B"
"1883","NFU1"
"1884","SOX15"
"1885","PAN2"
"1886","MTFP1"
"1887","BAZ2B"
"1888","ST6GALNAC3"
"1889","NBEAL2"
"1890","KIF21A"
"1891","PPP2R3C"
"1892","KIAA0319"
"1893","NHEJ1"
"1894","ESR2"
"1895","NEK8"
"1896","ARHGEF7"
"1897","LCMT1"
"1898","OXER1"
"1899","UBE2T"
"1900","TXNDC11"
"1901","IRGQ"
"1902","ARHGEF19"
"1903","PIGG"
"1904","ACSL4"
"1905","NKIRAS1"
"1906","GGACT"
"1907","LRRK2"
"1908","CCS"
"1909","LRP1"
"1910","CDK7"
"1911","SQLE"
"1912","POU2F1"
"1913","GPN2"
"1914","PIK3R5"
"1915","PANK1"
"1916","NOL4L"
"1917","BSCL2"
"1918","STRBP"
"1919","AASDH"
"1920","ATAD5"
"1921","ARHGEF6"
"1922","CHRNB1"
"1923","PEX1"
"1924","PEAK1"
"1925","MYO9B"
"1926","GKAP1"
"1927","HEATR6"
"1928","MTG2"
"1929","ABCD4"
"1930","MTMR1"
"1931","CDKN2B"
"1932","EVI5L"
"1933","IKZF3"
"1934","ASB7"
"1935","ETS2"
"1936","MYCBP"
"1937","B3GNT2"
"1938","BCOR"
"1939","ARSG"
"1940","HTT"
"1941","NFYB"
"1942","TTBK2"
"1943","L3MBTL3"
"1944","PHRF1"
"1945","KAT2B"
"1946","LRRC56"
"1947","CDADC1"
"1948","PPP1R13B"
"1949","GLDC"
"1950","SPSB1"
"1951","CCNL1"
"1952","POTEM"
"1953","LTBP4"
"1954","PDIA6"
"1955","GLCCI1"
"1956","OSBP2"
"1957","NUMA1"
"1958","SPAG16"
"1959","CINP"
"1960","UHRF1BP1L"
"1961","KIF13B"
"1962","MZT2A"
"1963","MYO1F"
"1964","JMJD1C"
"1965","KHK"
"1966","CEP72"
"1967","LRCH3"
"1968","PLA2G4C"
"1969","FAM126B"
"1970","PDK4"
"1971","CHD6"
"1972","PJA1"
"1973","STRN"
"1974","ATG16L1"
"1975","LMF1"
"1976","CCNJ"
"1977","STK38"
"1978","PALB2"
"1979","IL15"
"1980","ATXN7L3B"
"1981","SNRPE"
"1982","PLCL2"
"1983","PCGF1"
"1984","CLSTN1"
"1985","CHPF"
"1986","POLR2H"
"1987","PISD"
"1988","ISCA2"
"1989","ATPAF1"
"1990","HELZ2"
"1991","BLVRB"
"1992","UGCG"
"1993","PAFAH2"
"1994","EXOC2"
"1995","ACOT8"
"1996","MXD4"
"1997","IQSEC1"
"1998","BEND4"
"1999","CCNL2"
"2000","SPAG4"
